Highlighting high influence observations in ggplot2
…
Once estimated, we can get a vector of cooks distances and leverage values for each observation. We add these to the data frame.

# save cooks distance for each observation using $ notation
# Cook, R. Dennis (February 1977). "Detection of Influential Observations in Linear Regression". Technometrics. American Statistical Association. 19 (1): 1518. doi:10.2307/1268249. JSTOR 1268249. MR 0436478.
# https://en.wikipedia.org/wiki/Cook%27s_distance
# as another variable in the wine data frame
wine$cooks <- cooks.distance(model = simple.lm)

# save 'hat' calculation (leverage I think - we'll have to come back to exact calculation)
# as another variable inthe wine data frame
wine$hat <-  lm.influence(model = simple.lm)$hat
wine

## # A tibble: 178 x 4
##    Alcohol Proline     cooks     hat
##      <dbl>   <dbl>     <dbl>   <dbl>
##  1    14.2    1065 0.00738   0.0114 
##  2    13.2    1050 0.00132   0.0109 
##  3    13.2    1185 0.00710   0.0166 
##  4    14.4    1480 0.00117   0.0362 
##  5    13.2     735 0.000492  0.00563
##  6    14.2    1450 0.0000495 0.0338 
##  7    14.4    1290 0.00720   0.0224 
##  8    14.1    1295 0.000688  0.0227 
##  9    14.8    1045 0.0250    0.0107 
## 10    13.9    1045 0.00187   0.0107 
## #  with 168 more rows
…
